// Jest Snapshot v1, https://goo.gl/fbAQLP

exports[`SquareList should render correctly the component 1`] = `
<RCTScrollView
  data={
    Array [
      Object {
        "text": "Test",
        "title": "titleTest",
      },
      Object {
        "text": "Test2",
        "title": "titleTest2",
      },
      Object {
        "text": "Test22341",
        "title": "titleTest2",
      },
    ]
  }
  disableVirtualization={false}
  getItem={[Function]}
  getItemCount={[Function]}
  horizontal={false}
  initialNumToRender={10}
  keyExtractor={[Function]}
  maxToRenderPerBatch={10}
  onContentSizeChange={[Function]}
  onEndReachedThreshold={2}
  onLayout={[Function]}
  onMomentumScrollEnd={[Function]}
  onScroll={[Function]}
  onScrollBeginDrag={[Function]}
  onScrollEndDrag={[Function]}
  removeClippedSubviews={false}
  renderItem={[Function]}
  scrollEventThrottle={50}
  stickyHeaderIndices={Array []}
  updateCellsBatchingPeriod={50}
  viewabilityConfigCallbackPairs={Array []}
  windowSize={21}
>
  <View>
    <View
      onLayout={[Function]}
      style={null}
    >
      <View
        style={
          Object {
            "flexDirection": "row",
          }
        }
      >
        <View
          accessible={true}
          focusable={true}
          onClick={[Function]}
          onResponderGrant={[Function]}
          onResponderMove={[Function]}
          onResponderRelease={[Function]}
          onResponderTerminate={[Function]}
          onResponderTerminationRequest={[Function]}
          onStartShouldSetResponder={[Function]}
          style={
            Object {
              "alignItems": "center",
              "borderColor": "#e3e4e4",
              "borderRadius": 5,
              "borderWidth": 1,
              "height": 120,
              "justifyContent": "center",
              "margin": 15,
              "opacity": 1,
              "width": 120,
            }
          }
        >
          <Text
            style={
              Object {
                "fontSize": 35,
                "marginBottom": 10,
              }
            }
          >
            Test
          </Text>
          <Text
            style={
              Object {
                "color": "#707070",
                "fontSize": 14,
              }
            }
          >
            titleTest
          </Text>
        </View>
        <View
          accessible={true}
          focusable={true}
          onClick={[Function]}
          onResponderGrant={[Function]}
          onResponderMove={[Function]}
          onResponderRelease={[Function]}
          onResponderTerminate={[Function]}
          onResponderTerminationRequest={[Function]}
          onStartShouldSetResponder={[Function]}
          style={
            Object {
              "alignItems": "center",
              "borderColor": "#e3e4e4",
              "borderRadius": 5,
              "borderWidth": 1,
              "height": 120,
              "justifyContent": "center",
              "margin": 15,
              "opacity": 1,
              "width": 120,
            }
          }
        >
          <Text
            style={
              Object {
                "fontSize": 35,
                "marginBottom": 10,
              }
            }
          >
            Test2
          </Text>
          <Text
            style={
              Object {
                "color": "#707070",
                "fontSize": 14,
              }
            }
          >
            titleTest2
          </Text>
        </View>
      </View>
    </View>
    <View
      onLayout={[Function]}
      style={null}
    >
      <View
        style={
          Object {
            "flexDirection": "row",
          }
        }
      >
        <View
          accessible={true}
          focusable={true}
          onClick={[Function]}
          onResponderGrant={[Function]}
          onResponderMove={[Function]}
          onResponderRelease={[Function]}
          onResponderTerminate={[Function]}
          onResponderTerminationRequest={[Function]}
          onStartShouldSetResponder={[Function]}
          style={
            Object {
              "alignItems": "center",
              "borderColor": "#e3e4e4",
              "borderRadius": 5,
              "borderWidth": 1,
              "height": 120,
              "justifyContent": "center",
              "margin": 15,
              "opacity": 1,
              "width": 120,
            }
          }
        >
          <Text
            style={
              Object {
                "fontSize": 25,
                "marginBottom": 10,
              }
            }
          >
            Test22341
          </Text>
          <Text
            style={
              Object {
                "color": "#707070",
                "fontSize": 14,
              }
            }
          >
            titleTest2
          </Text>
        </View>
      </View>
    </View>
  </View>
</RCTScrollView>
`;
